Armenia CCDR - Armenia CCDR Microsimulation
…
  # Convert factor 'cohort' to numeric codes
  mutate(cohort_code = as.integer(cohort_short))

# Checking the resulting dataset
print(pop_data)

# A tibble: 60 × 5
   Variant  year female  male total_population
   <chr>   <dbl>  <dbl> <dbl>            <dbl>
 1 Medium   1991  1867. 1750.            3618.
 2 Medium   1992  1850. 1724.            3575.
 3 Medium   1993  1799. 1658.            3457.
 4 Medium   1994  1763. 1610.            3374.
 5 Medium   1995  1741. 1581.            3323.
 6 Medium   1996  1731. 1568.            3299.
 7 Medium   1997  1719. 1552.            3271.
 8 Medium   1998  1705. 1535.            3241.
 9 Medium   1999  1689. 1517.            3206.
10 Medium   2000  1672. 1496.            3169.
# ℹ 50 more rows
…
# Calculate the new expenditure levels
ca_microsim_cc <- ca_microsim_cc %>%
  mutate(food_exp1_sim = food_q1_sim * baseline_2030_food,
         food_exp2_sim = food_q2_sim * dry_hot_2030_food,
         food_exp3_sim = food_qPI_sim * food_PI)

# View the results
print(ca_microsim_cc %>% select(decile, food1, baseline_2030_food, food_1_dprice, food_q1_sim, food_exp1_sim, food_2_dprice, food_q2_sim, food_exp2_sim,food_exp2_sim, food_PI_dprice))

# A tibble: 5,184 × 10
   decile   food1 baseline_2030_food food_1_dprice food_q1_sim food_exp1_sim
    <dbl>   <dbl>              <dbl>         <dbl>       <dbl>         <dbl>
 1      9  92178.               1.01       0.00973      92073.        92969.
 2      7 105290.               1.01       0.00963     105229.       106243.
 3      2  22733.               1.01       0.0102       22650.        22881.
 4      2 163379.               1.01       0.0102      162778.       164442.
 5      4 102718.               1.01       0.0104      102400.       103461.
 6     10 208995.               1.01       0.0104      208548.       210712.
 7      8 116151.               1.01       0.00995     116140.       117296.
 8      5  67911.               1.01       0.00965      67745.        68398.
 9      6 152144.               1.01       0.00978     151971.       153457.
10      8  80033.               1.01       0.00995      80025.        80822.
# ℹ 5,174 more rows
# ℹ 4 more variables: food_2_dprice <dbl>, food_q2_sim <dbl>,
#   food_exp2_sim <dbl>, food_PI_dprice <dbl>
…
# Adjust total expenditure (totc) based on the purchasing power loss
ca_microsim_cc <- ca_microsim_cc %>%
  mutate(totc_2030_baseline_food1 = totc_2030_baseline * (1 - ttl_PPloss_1),
         totc_2030_dry_hot_food2 = totc_2030_dry_hot * (1 - ttl_PPloss_2),
         totc_2030_baseline_lab_cc_foodPI2 = totc_2030_baseline_lab_cc_avg * (1 - ttl_PPloss_PI),
         totc_2030_baseline_lab_cc_foodPI = totc_2030_baseline_lab_cc_avg - (food_exp3_sim - food1)
         )

# View the results
print(ca_microsim_cc %>% select(decile, totc_2030_baseline, totc_2030_baseline_food1, totc_2030_dry_hot_food2, totc_2030_baseline_lab_cc_foodPI))

# A tibble: 5,184 × 5
   decile totc_2030_baseline totc_2030_baseline_food1 totc_2030_dry_hot_food2
    <dbl>              <dbl>                    <dbl>                   <dbl>
 1      9            298269.                  297372.                 291365.
 2      7            345611.                  344597.                 331885.
 3      2            130498.                  130266.                 126316.
 4      2            365825.                  364155.                 348536.
 5      4            285862.                  284798.                 272543.
 6     10            525030.                  522861.                 499583.
 7      8            232452.                  231296.                 223637.
 8      5            326731.                  326076.                 315638.
 9      6            479398.                  477910.                 458876.
10      8            197776.                  196980.                 188004.
# ℹ 5,174 more rows
# ℹ 1 more variable: totc_2030_baseline_lab_cc_foodPI <dbl>
…
# View the results
print(ca_microsim_cc %>% select(decile, totc_2030_baseline, totc_2030_baseline_energy, totc_2030_nzs_energy, totc_2030_EM_baseline_energy,totc_2030_EM_nzs_energy))

# A tibble: 5,184 × 6
   decile totc_2030_baseline totc_2030_baseline_energy totc_2030_nzs_energy
    <dbl>              <dbl>                     <dbl>                <dbl>
 1      9            298269.                   250374.              242384.
 2      7            345611.                   326156.              297259.
 3      2            130498.                   128170.              120539.
 4      2            365825.                   332689.              305466.
 5      4            285862.                   261819.              234343.
 6     10            525030.                   484825.              438545.
 7      8            232452.                   203798.              203659.
 8      5            326731.                   294705.              262852.
 9      6            479398.                   439146.              395652.
10      8            197776.                   185229.              167076.
# ℹ 5,174 more rows
# ℹ 2 more variables: totc_2030_EM_baseline_energy <dbl>,
#   totc_2030_EM_nzs_energy <dbl>
…
